%YAML 1.1
%TAG !u! tag:unity3d.com,2011:
--- !u!181963792 &2655988077585873504
Preset:
  m_ObjectHideFlags: 0
  m_CorrespondingSourceObject: {fileID: 0}
  m_PrefabInstance: {fileID: 0}
  m_PrefabAsset: {fileID: 0}
  m_Name: PhantomPlayer
  m_TargetType:
    m_NativeTypeID: 114
    m_ManagedTypePPtr: {fileID: 11500000, guid: ebedafe1001d6904080234d298d64f06, type: 3}
    m_ManagedTypeFallback: 
  m_Properties:
  - target: {fileID: 0}
    propertyPath: m_Enabled
    value: 1
    objectReference: {fileID: 0}
  - target: {fileID: 0}
    propertyPath: m_EditorHideFlags
    value: 0
    objectReference: {fileID: 0}
  - target: {fileID: 0}
    propertyPath: m_EditorClassIdentifier
    value: 
    objectReference: {fileID: 0}
  - target: {fileID: 0}
    propertyPath: playerCamera
    value: 
    objectReference: {fileID: 1652534688379846592, guid: e4a86a5836adc6e498ef74402c1d9405, type: 3}
  - target: {fileID: 0}
    propertyPath: cameraSensitivity
    value: 3.5
    objectReference: {fileID: 0}
  - target: {fileID: 0}
    propertyPath: movementSpeed
    value: 6
    objectReference: {fileID: 0}
  - target: {fileID: 0}
    propertyPath: forwardVector
    value: 1
    objectReference: {fileID: 0}
  - target: {fileID: 0}
    propertyPath: smoothMovementDuration
    value: 0.2
    objectReference: {fileID: 0}
  - target: {fileID: 0}
    propertyPath: smoothCameraDuration
    value: 0.1
    objectReference: {fileID: 0}
  - target: {fileID: 0}
    propertyPath: gravity
    value: 0
    objectReference: {fileID: 0}
  - target: {fileID: 0}
    propertyPath: enableCollisions
    value: 0
    objectReference: {fileID: 0}
  - target: {fileID: 0}
    propertyPath: hideCursor
    value: 1
    objectReference: {fileID: 0}
  m_ExcludedProperties: []
